{
  "AD": {
    "CountryCode": "AD",
    "GeoCountryId": 1,
    "GeoCountryName": {
      "CHS": "安道​​尔",
      "CHT": "安道​​​​爾",
      "English": "Andorra"
    },
    "GeoCountryNameInvariant": "Andorra"
  },
  "AE": {
    "CountryCode": "AE",
    "GeoCountryId": 2,
    "GeoCountryName": {
      "CHS": "阿拉伯联合酋长国",
      "CHT": "阿拉伯聯合酋長國",
      "English": "United Arab Emirates"
    },
    "GeoCountryNameInvariant": "United Arab Emirates"
  },
  "AG": {
    "CountryCode": "AG",
    "GeoCountryId": 3,
    "GeoCountryName": {
      "CHS": "安提瓜和巴布达",
      "CHT": "安提瓜和巴布達",
      "English": "Antigua and Barbuda"
    },
    "GeoCountryNameInvariant": "Antigua and Barbuda"
  },
  "AI": {
    "CountryCode": "AI",
    "GeoCountryId": 4,
    "GeoCountryName": {
      "CHS": "安圭拉岛",
      "CHT": "安圭拉島",
      "English": "Anguilla"
    },
    "GeoCountryNameInvariant": "Anguilla"
  },
  "AL": {
    "CountryCode": "AL",
    "GeoCountryId": 5,
    "GeoCountryName": {
      "CHS": "阿尔巴尼亚",
      "CHT": "阿爾巴尼亞",
      "English": "Albania"
    },
    "GeoCountryNameInvariant": "Albania"
  },
  "AM": {
    "CountryCode": "AM",
    "GeoCountryId": 6,
    "GeoCountryName": {
      "CHS": "亚美尼亚",
      "CHT": "亞美尼亞",
      "English": "Armenia"
    },
    "GeoCountryNameInvariant": "Armenia"
  },
  "AN": {
    "CountryCode": "AN",
    "GeoCountryId": 7,
    "GeoCountryName": {
      "CHS": "荷属安的列斯",
      "CHT": "荷屬安的列斯",
      "English": "Netherlands Antilles"
    },
    "GeoCountryNameInvariant": "Netherlands Antilles"
  },
  "AO": {
    "CountryCode": "AO",
    "GeoCountryId": 8,
    "GeoCountryName": {
      "CHS": "安哥拉",
      "CHT": "安哥拉",
      "English": "Angola"
    },
    "GeoCountryNameInvariant": "Angola"
  },
  "AR": {
    "CountryCode": "AR",
    "GeoCountryId": 9,
    "GeoCountryName": {
      "CHS": "阿根廷",
      "CHT": "阿根廷",
      "English": "Argentina"
    },
    "GeoCountryNameInvariant": "Argentina"
  },
  "AS": {
    "CountryCode": "AS",
    "GeoCountryId": 10,
    "GeoCountryName": {
      "CHS": "美属萨摩亚",
      "CHT": "美屬薩摩亞",
      "English": "American Samoa"
    },
    "GeoCountryNameInvariant": "American Samoa"
  },
  "AT": {
    "CountryCode": "AT",
    "GeoCountryId": 11,
    "GeoCountryName": {
      "CHS": "奥地利",
      "CHT": "奧地利",
      "English": "Austria"
    },
    "GeoCountryNameInvariant": "Austria"
  },
  "AU": {
    "CountryCode": "AU",
    "GeoCountryId": 12,
    "GeoCountryName": {
      "CHS": "澳大利亚",
      "CHT": "澳大利亞",
      "English": "Australia"
    },
    "GeoCountryNameInvariant": "Australia"
  },
  "AW": {
    "CountryCode": "AW",
    "GeoCountryId": 13,
    "GeoCountryName": {
      "CHS": "阿鲁巴岛",
      "CHT": "阿魯巴島",
      "English": "Aruba"
    },
    "GeoCountryNameInvariant": "Aruba"
  },
  "AX": {
    "CountryCode": "AX",
    "GeoCountryId": 14,
    "GeoCountryName": {
      "CHS": "阿富汗",
      "CHT": "阿富汗",
      "English": "Afghanistan"
    },
    "GeoCountryNameInvariant": "Afghanistan"
  },
  "AZ": {
    "CountryCode": "AZ",
    "GeoCountryId": 15,
    "GeoCountryName": {
      "CHS": "阿塞拜疆",
      "CHT": "阿塞拜疆",
      "English": "Azerbaijan"
    },
    "GeoCountryNameInvariant": "Azerbaijan"
  },
  "BA": {
    "CountryCode": "BA",
    "GeoCountryId": 16,
    "GeoCountryName": {
      "CHS": "波斯尼亚和黑塞哥维那",
      "CHT": "波斯尼亞和黑塞哥維那",
      "English": "Bosnia and Herzegovina"
    },
    "GeoCountryNameInvariant": "Bosnia and Herzegovina"
  },
  "BB": {
    "CountryCode": "BB",
    "GeoCountryId": 17,
    "GeoCountryName": {
      "CHS": "巴巴多斯",
      "CHT": "巴巴多斯",
      "English": "Barbados"
    },
    "GeoCountryNameInvariant": "Barbados"
  },
  "BD": {
    "CountryCode": "BD",
    "GeoCountryId": 18,
    "GeoCountryName": {
      "CHS": "孟加拉国",
      "CHT": "孟加拉國",
      "English": "Bangladesh"
    },
    "GeoCountryNameInvariant": "Bangladesh"
  },
  "BE": {
    "CountryCode": "BE",
    "GeoCountryId": 19,
    "GeoCountryName": {
      "CHS": "比利时",
      "CHT": "比利時",
      "English": "Belgium"
    },
    "GeoCountryNameInvariant": "Belgium"
  },
  "BF": {
    "CountryCode": "BF",
    "GeoCountryId": 20,
    "GeoCountryName": {
      "CHS": "布基纳法索",
      "CHT": "布基納法索",
      "English": "Burkina Faso"
    },
    "GeoCountryNameInvariant": "Burkina Faso"
  },
  "BG": {
    "CountryCode": "BG",
    "GeoCountryId": 21,
    "GeoCountryName": {
      "CHS": "保加利亚",
      "CHT": "保加利亞",
      "English": "Bulgaria"
    },
    "GeoCountryNameInvariant": "Bulgaria"
  },
  "BH": {
    "CountryCode": "BH",
    "GeoCountryId": 22,
    "GeoCountryName": {
      "CHS": "巴林",
      "CHT": "巴林",
      "English": "Bahrain"
    },
    "GeoCountryNameInvariant": "Bahrain"
  },
  "BI": {
    "CountryCode": "BI",
    "GeoCountryId": 23,
    "GeoCountryName": {
      "CHS": "布隆迪",
      "CHT": "布隆迪",
      "English": "Burundi"
    },
    "GeoCountryNameInvariant": "Burundi"
  },
  "BJ": {
    "CountryCode": "BJ",
    "GeoCountryId": 24,
    "GeoCountryName": {
      "CHS": "贝宁",
      "CHT": "貝寧",
      "English": "Benin"
    },
    "GeoCountryNameInvariant": "Benin"
  },
  "BL": {
    "CountryCode": "BL",
    "GeoCountryId": 25,
    "GeoCountryName": {
      "CHS": "圣巴托洛缪岛",
      "CHT": "聖巴托洛繆島",
      "English": "Saint Barthélemy"
    },
    "GeoCountryNameInvariant": "Saint Barthélemy"
  },
  "BM": {
    "CountryCode": "BM",
    "GeoCountryId": 26,
    "GeoCountryName": {
      "CHS": "百慕大群岛",
      "CHT": "百慕大群島",
      "English": "Bermuda"
    },
    "GeoCountryNameInvariant": "Bermuda"
  },
  "BN": {
    "CountryCode": "BN",
    "GeoCountryId": 27,
    "GeoCountryName": {
      "CHS": "文莱",
      "CHT": "文萊",
      "English": "Brunei Darussalam"
    },
    "GeoCountryNameInvariant": "Brunei Darussalam"
  },
  "BO": {
    "CountryCode": "BO",
    "GeoCountryId": 28,
    "GeoCountryName": {
      "CHS": "玻利维亚",
      "CHT": "玻利維亞",
      "English": "Bolivia (Plurinational State of)"
    },
    "GeoCountryNameInvariant": "Bolivia (Plurinational State of)"
  },
  "BR": {
    "CountryCode": "BR",
    "GeoCountryId": 29,
    "GeoCountryName": {
      "CHS": "巴西",
      "CHT": "巴西",
      "English": "Brazil"
    },
    "GeoCountryNameInvariant": "Brazil"
  },
  "BS": {
    "CountryCode": "BS",
    "GeoCountryId": 30,
    "GeoCountryName": {
      "CHS": "巴哈马",
      "CHT": "巴哈馬",
      "English": "Bahamas (the)"
    },
    "GeoCountryNameInvariant": "Bahamas (the)"
  },
  "BT": {
    "CountryCode": "BT",
    "GeoCountryId": 31,
    "GeoCountryName": {
      "CHS": "不丹",
      "CHT": "不丹",
      "English": "Bhutan"
    },
    "GeoCountryNameInvariant": "Bhutan"
  },
  "BV": {
    "CountryCode": "BV",
    "GeoCountryId": 33,
    "GeoCountryName": {
      "CHS": "布维岛",
      "CHT": "布維島",
      "English": "Bouvet Island"
    },
    "GeoCountryNameInvariant": "Bouvet Island"
  },
  "BW": {
    "CountryCode": "BW",
    "GeoCountryId": 34,
    "GeoCountryName": {
      "CHS": "博茨瓦纳",
      "CHT": "博茨瓦納",
      "English": "Botswana"
    },
    "GeoCountryNameInvariant": "Botswana"
  },
  "BY": {
    "CountryCode": "BY",
    "GeoCountryId": 35,
    "GeoCountryName": {
      "CHS": "白俄罗斯",
      "CHT": "白俄羅斯",
      "English": "Belarus"
    },
    "GeoCountryNameInvariant": "Belarus"
  },
  "BZ": {
    "CountryCode": "BZ",
    "GeoCountryId": 36,
    "GeoCountryName": {
      "CHS": "伯利兹",
      "CHT": "伯利茲",
      "English": "Belize"
    },
    "GeoCountryNameInvariant": "Belize"
  },
  "CA": {
    "CountryCode": "CA",
    "GeoCountryId": 37,
    "GeoCountryName": {
      "CHS": "加拿大",
      "CHT": "加拿大",
      "English": "Canada"
    },
    "GeoCountryNameInvariant": "Canada"
  },
  "CC": {
    "CountryCode": "CC",
    "GeoCountryId": 38,
    "GeoCountryName": {
      "CHS": "科科斯群岛",
      "CHT": "科科斯群島",
      "English": "Cocos (Keeling) Islands"
    },
    "GeoCountryNameInvariant": "Cocos (Keeling) Islands"
  },
  "CD": {
    "CountryCode": "CD",
    "GeoCountryId": 39,
    "GeoCountryName": {
      "CHS": "刚果民主共和国",
      "CHT": "剛果民主共和國",
      "English": "Congo (the Democratic Republic of the)"
    },
    "GeoCountryNameInvariant": "Congo (the Democratic Republic of the)"
  },
  "CF": {
    "CountryCode": "CF",
    "GeoCountryId": 40,
    "GeoCountryName": {
      "CHS": "中非共和国",
      "CHT": "中非共和國",
      "English": "Central African Republic (the)"
    },
    "GeoCountryNameInvariant": "Central African Republic (the)"
  },
  "CG": {
    "CountryCode": "CG",
    "GeoCountryId": 41,
    "GeoCountryName": {
      "CHS": "刚果共和国",
      "CHT": "剛果共和國",
      "English": "Congo (the)"
    },
    "GeoCountryNameInvariant": "Congo (the)"
  },
  "CH": {
    "CountryCode": "CH",
    "GeoCountryId": 42,
    "GeoCountryName": {
      "CHS": "瑞士",
      "CHT": "瑞士",
      "English": "Switzerland"
    },
    "GeoCountryNameInvariant": "Switzerland"
  },
  "CI": {
    "CountryCode": "CI",
    "GeoCountryId": 43,
    "GeoCountryName": {
      "CHS": "科特迪瓦",
      "CHT": "科特迪瓦",
      "English": "Côte d'Ivoire"
    },
    "GeoCountryNameInvariant": "Côte d'Ivoire"
  },
  "CK": {
    "CountryCode": "CK",
    "GeoCountryId": 44,
    "GeoCountryName": {
      "CHS": "库克群岛",
      "CHT": "庫克群島",
      "English": "Cook Islands (the)"
    },
    "GeoCountryNameInvariant": "Cook Islands (the)"
  },
  "CL": {
    "CountryCode": "CL",
    "GeoCountryId": 45,
    "GeoCountryName": {
      "CHS": "智利",
      "CHT": "智利",
      "English": "Chile"
    },
    "GeoCountryNameInvariant": "Chile"
  },
  "CM": {
    "CountryCode": "CM",
    "GeoCountryId": 46,
    "GeoCountryName": {
      "CHS": "喀麦隆",
      "CHT": "喀麥隆",
      "English": "Cameroon"
    },
    "GeoCountryNameInvariant": "Cameroon"
  },
  "CN": {
    "CountryCode": "CN",
    "GeoCountryId": 47,
    "GeoCountryName": {
      "CHS": "中国",
      "CHT": "中國",
      "English": "China"
    },
    "GeoCountryNameInvariant": "China"
  },
  "CO": {
    "CountryCode": "CO",
    "GeoCountryId": 48,
    "GeoCountryName": {
      "CHS": "哥伦比亚",
      "CHT": "哥倫比亞",
      "English": "Colombia"
    },
    "GeoCountryNameInvariant": "Colombia"
  },
  "CR": {
    "CountryCode": "CR",
    "GeoCountryId": 49,
    "GeoCountryName": {
      "CHS": "哥斯达黎加",
      "CHT": "哥斯達黎加",
      "English": "Costa Rica"
    },
    "GeoCountryNameInvariant": "Costa Rica"
  },
  "CS": {
    "CountryCode": "CS",
    "GeoCountryId": 50,
    "GeoCountryName": {
      "CHS": "塞尔维亚和黑山",
      "CHT": "塞爾維亞和黑山",
      "English": "Serbia and Montenegro"
    },
    "GeoCountryNameInvariant": "Serbia and Montenegro"
  },
  "CT": {
    "CountryCode": "CT",
    "GeoCountryId": 51,
    "GeoCountryName": {
      "CHS": "佛得角",
      "CHT": "佛得角",
      "English": "Canton and Enderbury Islands"
    },
    "GeoCountryNameInvariant": "Canton and Enderbury Islands"
  },
  "CU": {
    "CountryCode": "CU",
    "GeoCountryId": 52,
    "GeoCountryName": {
      "CHS": "古巴",
      "CHT": "古巴",
      "English": "Cuba"
    },
    "GeoCountryNameInvariant": "Cuba"
  },
  "CV": {
    "CountryCode": "CV",
    "GeoCountryId": 53,
    "GeoCountryName": {
      "CHS": "佛得角共和国",
      "CHT": "佛得角共和國",
      "English": "Cabo Verde"
    },
    "GeoCountryNameInvariant": "Cabo Verde"
  },
  "CW": {
    "CountryCode": "CW",
    "GeoCountryId": 54,
    "GeoCountryName": {
      "CHS": "库拉索",
      "CHT": "庫拉索",
      "English": "Curaçao"
    },
    "GeoCountryNameInvariant": "Curaçao"
  },
  "CX": {
    "CountryCode": "CX",
    "GeoCountryId": 55,
    "GeoCountryName": {
      "CHS": "圣诞岛",
      "CHT": "聖誕島",
      "English": "Christmas Island"
    },
    "GeoCountryNameInvariant": "Christmas Island"
  },
  "CY": {
    "CountryCode": "CY",
    "GeoCountryId": 56,
    "GeoCountryName": {
      "CHS": "塞浦路斯",
      "CHT": "塞浦路斯",
      "English": "Cyprus"
    },
    "GeoCountryNameInvariant": "Cyprus"
  },
  "CZ": {
    "CountryCode": "CZ",
    "GeoCountryId": 57,
    "GeoCountryName": {
      "CHS": "捷克共和国",
      "CHT": "捷克共和國",
      "English": "Czech Republic"
    },
    "GeoCountryNameInvariant": "Czech Republic"
  },
  "DE": {
    "CountryCode": "DE",
    "GeoCountryId": 58,
    "GeoCountryName": {
      "CHS": "德国",
      "CHT": "德國",
      "English": "Germany"
    },
    "GeoCountryNameInvariant": "Germany"
  },
  "DJ": {
    "CountryCode": "DJ",
    "GeoCountryId": 59,
    "GeoCountryName": {
      "CHS": "吉布提",
      "CHT": "吉布提",
      "English": "Djibouti"
    },
    "GeoCountryNameInvariant": "Djibouti"
  },
  "DK": {
    "CountryCode": "DK",
    "GeoCountryId": 60,
    "GeoCountryName": {
      "CHS": "丹麦",
      "CHT": "丹麥",
      "English": "Denmark"
    },
    "GeoCountryNameInvariant": "Denmark"
  },
  "DM": {
    "CountryCode": "DM",
    "GeoCountryId": 61,
    "GeoCountryName": {
      "CHS": "多米尼加",
      "CHT": "多米尼加",
      "English": "Dominica"
    },
    "GeoCountryNameInvariant": "Dominica"
  },
  "DO": {
    "CountryCode": "DO",
    "GeoCountryId": 62,
    "GeoCountryName": {
      "CHS": "多明尼加共和国",
      "CHT": "多明尼加共和國",
      "English": "Dominican Republic (the)"
    },
    "GeoCountryNameInvariant": "Dominican Republic (the)"
  },
  "DY": {
    "CountryCode": "DY",
    "GeoCountryId": 63,
    "GeoCountryName": {
      "CHS": "达荷美共和国",
      "CHT": "達荷美共和國",
      "English": "Dahomey"
    },
    "GeoCountryNameInvariant": "Dahomey"
  },
  "DZ": {
    "CountryCode": "DZ",
    "GeoCountryId": 64,
    "GeoCountryName": {
      "CHS": "阿尔及利亚",
      "CHT": "阿爾及利亞",
      "English": "Algeria"
    },
    "GeoCountryNameInvariant": "Algeria"
  },
  "EC": {
    "CountryCode": "EC",
    "GeoCountryId": 65,
    "GeoCountryName": {
      "CHS": "厄瓜多尔",
      "CHT": "厄瓜多爾",
      "English": "Ecuador"
    },
    "GeoCountryNameInvariant": "Ecuador"
  },
  "EE": {
    "CountryCode": "EE",
    "GeoCountryId": 66,
    "GeoCountryName": {
      "CHS": "爱沙尼亚",
      "CHT": "愛沙尼亞",
      "English": "Estonia"
    },
    "GeoCountryNameInvariant": "Estonia"
  },
  "EG": {
    "CountryCode": "EG",
    "GeoCountryId": 67,
    "GeoCountryName": {
      "CHS": "埃及",
      "CHT": "埃及",
      "English": "Egypt"
    },
    "GeoCountryNameInvariant": "Egypt"
  },
  "ER": {
    "CountryCode": "ER",
    "GeoCountryId": 68,
    "GeoCountryName": {
      "CHS": "厄立特里亚",
      "CHT": "厄立特里亞",
      "English": "Eritrea"
    },
    "GeoCountryNameInvariant": "Eritrea"
  },
  "ES": {
    "CountryCode": "ES",
    "GeoCountryId": 69,
    "GeoCountryName": {
      "CHS": "西班牙",
      "CHT": "西班牙",
      "English": "Spain"
    },
    "GeoCountryNameInvariant": "Spain"
  },
  "ET": {
    "CountryCode": "ET",
    "GeoCountryId": 70,
    "GeoCountryName": {
      "CHS": "埃塞俄比亚",
      "CHT": "埃塞俄比亞",
      "English": "Ethiopia"
    },
    "GeoCountryNameInvariant": "Ethiopia"
  },
  "FI": {
    "CountryCode": "FI",
    "GeoCountryId": 71,
    "GeoCountryName": {
      "CHS": "芬兰",
      "CHT": "芬蘭",
      "English": "Finland"
    },
    "GeoCountryNameInvariant": "Finland"
  },
  "FJ": {
    "CountryCode": "FJ",
    "GeoCountryId": 72,
    "GeoCountryName": {
      "CHS": "斐济",
      "CHT": "斐濟",
      "English": "Fiji"
    },
    "GeoCountryNameInvariant": "Fiji"
  },
  "FK": {
    "CountryCode": "FK",
    "GeoCountryId": 73,
    "GeoCountryName": {
      "CHS": "福克兰群岛",
      "CHT": "福克蘭群島",
      "English": "Falkland Islands (the) [Malvinas]"
    },
    "GeoCountryNameInvariant": "Falkland Islands (the) [Malvinas]"
  },
  "FM": {
    "CountryCode": "FM",
    "GeoCountryId": 74,
    "GeoCountryName": {
      "CHS": "密克罗尼西亚",
      "CHT": "密克羅尼西亞",
      "English": "Micronesia (Federated States of)"
    },
    "GeoCountryNameInvariant": "Micronesia (Federated States of)"
  },
  "FO": {
    "CountryCode": "FO",
    "GeoCountryId": 75,
    "GeoCountryName": {
      "CHS": "法罗群岛",
      "CHT": "法羅群島",
      "English": "Faroe Islands (the)"
    },
    "GeoCountryNameInvariant": "Faroe Islands (the)"
  },
  "FR": {
    "CountryCode": "FR",
    "GeoCountryId": 76,
    "GeoCountryName": {
      "CHS": "法国",
      "CHT": "法國",
      "English": "France"
    },
    "GeoCountryNameInvariant": "France"
  },
  "GA": {
    "CountryCode": "GA",
    "GeoCountryId": 77,
    "GeoCountryName": {
      "CHS": "加蓬",
      "CHT": "加蓬",
      "English": "Gabon"
    },
    "GeoCountryNameInvariant": "Gabon"
  },
  "GB": {
    "CountryCode": "GB",
    "GeoCountryId": 78,
    "GeoCountryName": {
      "CHS": "英国",
      "CHT": "英國",
      "English": "United Kingdom of Great Britain and Northern Irela"
    },
    "GeoCountryNameInvariant": "United Kingdom of Great Britain and Northern Ireland (the)"
  },
  "GD": {
    "CountryCode": "GD",
    "GeoCountryId": 79,
    "GeoCountryName": {
      "CHS": "格林纳达",
      "CHT": "格林納達",
      "English": "Grenada"
    },
    "GeoCountryNameInvariant": "Grenada"
  },
  "GE": {
    "CountryCode": "GE",
    "GeoCountryId": 80,
    "GeoCountryName": {
      "CHS": "格鲁吉亚",
      "CHT": "格魯吉亞",
      "English": "Georgia"
    },
    "GeoCountryNameInvariant": "Georgia"
  },
  "GE": {
    "CountryCode": "GE",
    "GeoCountryId": 81,
    "GeoCountryName": {
      "CHS": "吉尔柏特及埃里斯群岛",
      "CHT": "吉爾柏特及埃里斯群島",
      "English": "Gilbert and Ellice Islands"
    },
    "GeoCountryNameInvariant": "Gilbert and Ellice Islands"
  },
  "GG": {
    "CountryCode": "GG",
    "GeoCountryId": 82,
    "GeoCountryName": {
      "CHS": "格恩西岛",
      "CHT": "格恩西島",
      "English": "Guernsey"
    },
    "GeoCountryNameInvariant": "Guernsey"
  },
  "GH": {
    "CountryCode": "GH",
    "GeoCountryId": 83,
    "GeoCountryName": {
      "CHS": "加纳",
      "CHT": "加納",
      "English": "Ghana"
    },
    "GeoCountryNameInvariant": "Ghana"
  },
  "GL": {
    "CountryCode": "GL",
    "GeoCountryId": 84,
    "GeoCountryName": {
      "CHS": "格陵兰",
      "CHT": "格陵蘭",
      "English": "Greenland"
    },
    "GeoCountryNameInvariant": "Greenland"
  },
  "GM": {
    "CountryCode": "GM",
    "GeoCountryId": 85,
    "GeoCountryName": {
      "CHS": "冈比亚",
      "CHT": "岡比亞",
      "English": "Gambia (the)"
    },
    "GeoCountryNameInvariant": "Gambia (the)"
  },
  "GN": {
    "CountryCode": "GN",
    "GeoCountryId": 86,
    "GeoCountryName": {
      "CHS": "几内亚",
      "CHT": "幾內亞",
      "English": "Guinea"
    },
    "GeoCountryNameInvariant": "Guinea"
  },
  "GP": {
    "CountryCode": "GP",
    "GeoCountryId": 87,
    "GeoCountryName": {
      "CHS": "瓜德罗普岛",
      "CHT": "瓜德羅普島",
      "English": "Guadeloupe"
    },
    "GeoCountryNameInvariant": "Guadeloupe"
  },
  "GQ": {
    "CountryCode": "GQ",
    "GeoCountryId": 88,
    "GeoCountryName": {
      "CHS": "赤道几内亚",
      "CHT": "赤道幾內亞",
      "English": "Equatorial Guinea"
    },
    "GeoCountryNameInvariant": "Equatorial Guinea"
  },
  "GR": {
    "CountryCode": "GR",
    "GeoCountryId": 89,
    "GeoCountryName": {
      "CHS": "希腊",
      "CHT": "希臘",
      "English": "Greece"
    },
    "GeoCountryNameInvariant": "Greece"
  },
  "GS": {
    "CountryCode": "GS",
    "GeoCountryId": 90,
    "GeoCountryName": {
      "CHS": "南乔治亚岛与南桑威奇群岛",
      "CHT": "南喬治亞島與南桑威奇群島",
      "English": "South Georgia and the South Sandwich Islands"
    },
    "GeoCountryNameInvariant": "South Georgia and the South Sandwich Islands"
  },
  "GT": {
    "CountryCode": "GT",
    "GeoCountryId": 91,
    "GeoCountryName": {
      "CHS": "危地马拉",
      "CHT": "危地馬拉",
      "English": "Guatemala"
    },
    "GeoCountryNameInvariant": "Guatemala"
  },
  "GU": {
    "CountryCode": "GU",
    "GeoCountryId": 92,
    "GeoCountryName": {
      "CHS": "关岛",
      "CHT": "關島",
      "English": "Guam"
    },
    "GeoCountryNameInvariant": "Guam"
  },
  "GW": {
    "CountryCode": "GW",
    "GeoCountryId": 93,
    "GeoCountryName": {
      "CHS": "几内亚比绍",
      "CHT": "幾內亞比紹",
      "English": "Guinea-Bissau"
    },
    "GeoCountryNameInvariant": "Guinea-Bissau"
  },
  "GY": {
    "CountryCode": "GY",
    "GeoCountryId": 94,
    "GeoCountryName": {
      "CHS": "圭亚那",
      "CHT": "圭亞那",
      "English": "Guyana"
    },
    "GeoCountryNameInvariant": "Guyana"
  },
  "HK": {
    "CountryCode": "HK",
    "GeoCountryId": 95,
    "GeoCountryName": {
      "CHS": "香港",
      "CHT": "香港",
      "English": "Hong Kong"
    },
    "GeoCountryNameInvariant": "Hong Kong"
  },
  "HM": {
    "CountryCode": "HM",
    "GeoCountryId": 96,
    "GeoCountryName": {
      "CHS": "赫德岛和麦克唐纳群岛",
      "CHT": "赫德島和麥克唐納群島",
      "English": "Heard Island and McDonald Islands"
    },
    "GeoCountryNameInvariant": "Heard Island and McDonald Islands"
  },
  "HN": {
    "CountryCode": "HN",
    "GeoCountryId": 97,
    "GeoCountryName": {
      "CHS": "洪都拉斯",
      "CHT": "洪都拉斯",
      "English": "Honduras"
    },
    "GeoCountryNameInvariant": "Honduras"
  },
  "HR": {
    "CountryCode": "HR",
    "GeoCountryId": 98,
    "GeoCountryName": {
      "CHS": "克罗地亚",
      "CHT": "克羅地亞",
      "English": "Croatia"
    },
    "GeoCountryNameInvariant": "Croatia"
  },
  "HT": {
    "CountryCode": "HT",
    "GeoCountryId": 99,
    "GeoCountryName": {
      "CHS": "海地",
      "CHT": "海地",
      "English": "Haiti"
    },
    "GeoCountryNameInvariant": "Haiti"
  },
  "HU": {
    "CountryCode": "HU",
    "GeoCountryId": 100,
    "GeoCountryName": {
      "CHS": "匈牙利",
      "CHT": "匈牙利",
      "English": "Hungary"
    },
    "GeoCountryNameInvariant": "Hungary"
  },
  "ID": {
    "CountryCode": "ID",
    "GeoCountryId": 101,
    "GeoCountryName": {
      "CHS": "印尼",
      "CHT": "印尼",
      "English": "Indonesia"
    },
    "GeoCountryNameInvariant": "Indonesia"
  },
  "IE": {
    "CountryCode": "IE",
    "GeoCountryId": 102,
    "GeoCountryName": {
      "CHS": "爱尔兰",
      "CHT": "愛爾蘭",
      "English": "Ireland"
    },
    "GeoCountryNameInvariant": "Ireland"
  },
  "IL": {
    "CountryCode": "IL",
    "GeoCountryId": 103,
    "GeoCountryName": {
      "CHS": "以色列",
      "CHT": "以色列",
      "English": "Israel"
    },
    "GeoCountryNameInvariant": "Israel"
  },
  "IM": {
    "CountryCode": "IM",
    "GeoCountryId": 104,
    "GeoCountryName": {
      "CHS": "英属曼岛",
      "CHT": "英屬曼島",
      "English": "Isle of Man"
    },
    "GeoCountryNameInvariant": "Isle of Man"
  },
  "IN": {
    "CountryCode": "IN",
    "GeoCountryId": 105,
    "GeoCountryName": {
      "CHS": "印度",
      "CHT": "印度",
      "English": "India"
    },
    "GeoCountryNameInvariant": "India"
  },
  "IQ": {
    "CountryCode": "IQ",
    "GeoCountryId": 106,
    "GeoCountryName": {
      "CHS": "伊拉克",
      "CHT": "伊拉克",
      "English": "Iraq"
    },
    "GeoCountryNameInvariant": "Iraq"
  },
  "IR": {
    "CountryCode": "IR",
    "GeoCountryId": 107,
    "GeoCountryName": {
      "CHS": "伊朗",
      "CHT": "伊朗",
      "English": "Iran (Islamic Republic of)"
    },
    "GeoCountryNameInvariant": "Iran (Islamic Republic of)"
  },
  "IS": {
    "CountryCode": "IS",
    "GeoCountryId": 108,
    "GeoCountryName": {
      "CHS": "冰岛",
      "CHT": "冰島",
      "English": "Iceland"
    },
    "GeoCountryNameInvariant": "Iceland"
  },
  "IT": {
    "CountryCode": "IT",
    "GeoCountryId": 109,
    "GeoCountryName": {
      "CHS": "意大利",
      "CHT": "意大利",
      "English": "Italy"
    },
    "GeoCountryNameInvariant": "Italy"
  },
  "JE": {
    "CountryCode": "JE",
    "GeoCountryId": 110,
    "GeoCountryName": {
      "CHS": "泽西岛",
      "CHT": "澤西島",
      "English": "Jersey"
    },
    "GeoCountryNameInvariant": "Jersey"
  },
  "JM": {
    "CountryCode": "JM",
    "GeoCountryId": 111,
    "GeoCountryName": {
      "CHS": "牙买加",
      "CHT": "牙買加",
      "English": "Jamaica"
    },
    "GeoCountryNameInvariant": "Jamaica"
  },
  "JO": {
    "CountryCode": "JO",
    "GeoCountryId": 112,
    "GeoCountryName": {
      "CHS": "约旦",
      "CHT": "約旦",
      "English": "Jordan"
    },
    "GeoCountryNameInvariant": "Jordan"
  },
  "JP": {
    "CountryCode": "JP",
    "GeoCountryId": 113,
    "GeoCountryName": {
      "CHS": "日本",
      "CHT": "日本",
      "English": "Japan"
    },
    "GeoCountryNameInvariant": "Japan"
  },
  "JT": {
    "CountryCode": "JT",
    "GeoCountryId": 114,
    "GeoCountryName": {
      "CHS": "约翰斯顿岛",
      "CHT": "約翰斯頓島",
      "English": "Johnston Island"
    },
    "GeoCountryNameInvariant": "Johnston Island"
  },
  "KE": {
    "CountryCode": "KE",
    "GeoCountryId": 115,
    "GeoCountryName": {
      "CHS": "肯尼亚",
      "CHT": "肯尼亞",
      "English": "Kenya"
    },
    "GeoCountryNameInvariant": "Kenya"
  },
  "KG": {
    "CountryCode": "KG",
    "GeoCountryId": 116,
    "GeoCountryName": {
      "CHS": "吉尔吉斯斯坦",
      "CHT": "吉爾吉斯斯坦",
      "English": "Kyrgyzstan"
    },
    "GeoCountryNameInvariant": "Kyrgyzstan"
  },
  "KH": {
    "CountryCode": "KH",
    "GeoCountryId": 117,
    "GeoCountryName": {
      "CHS": "柬埔寨",
      "CHT": "柬埔寨",
      "English": "Cambodia"
    },
    "GeoCountryNameInvariant": "Cambodia"
  },
  "KI": {
    "CountryCode": "KI",
    "GeoCountryId": 118,
    "GeoCountryName": {
      "CHS": "基里巴斯",
      "CHT": "基里巴斯",
      "English": "Kiribati"
    },
    "GeoCountryNameInvariant": "Kiribati"
  },
  "KM": {
    "CountryCode": "KM",
    "GeoCountryId": 119,
    "GeoCountryName": {
      "CHS": "科摩罗",
      "CHT": "科摩羅",
      "English": "Comoros (the)"
    },
    "GeoCountryNameInvariant": "Comoros (the)"
  },
  "KN": {
    "CountryCode": "KN",
    "GeoCountryId": 120,
    "GeoCountryName": {
      "CHS": "圣基茨和尼维斯",
      "CHT": "聖基茨和尼維斯",
      "English": "Saint Kitts and Nevis"
    },
    "GeoCountryNameInvariant": "Saint Kitts and Nevis"
  },
  "KP": {
    "CountryCode": "KP",
    "GeoCountryId": 121,
    "GeoCountryName": {
      "CHS": "朝鲜",
      "CHT": "朝鮮",
      "English": "Korea (the Democratic People's Republic of)"
    },
    "GeoCountryNameInvariant": "Korea (the Democratic People's Republic of)"
  },
  "KR": {
    "CountryCode": "KR",
    "GeoCountryId": 122,
    "GeoCountryName": {
      "CHS": "韩国",
      "CHT": "韓國",
      "English": "Korea (the Republic of)"
    },
    "GeoCountryNameInvariant": "Korea (the Republic of)"
  },
  "KW": {
    "CountryCode": "KW",
    "GeoCountryId": 123,
    "GeoCountryName": {
      "CHS": "科威特",
      "CHT": "科威特",
      "English": "Kuwait"
    },
    "GeoCountryNameInvariant": "Kuwait"
  },
  "KY": {
    "CountryCode": "KY",
    "GeoCountryId": 124,
    "GeoCountryName": {
      "CHS": "开曼群岛",
      "CHT": "開曼群島",
      "English": "Cayman Islands"
    },
    "GeoCountryNameInvariant": "Cayman Islands"
  },
  "KZ": {
    "CountryCode": "KZ",
    "GeoCountryId": 125,
    "GeoCountryName": {
      "CHS": "哈萨克斯坦",
      "CHT": "哈薩克斯坦",
      "English": "Kazakhstan"
    },
    "GeoCountryNameInvariant": "Kazakhstan"
  },
  "LA": {
    "CountryCode": "LA",
    "GeoCountryId": 126,
    "GeoCountryName": {
      "CHS": "老挝",
      "CHT": "老撾",
      "English": "Lao People's Democratic Republic (the)"
    },
    "GeoCountryNameInvariant": "Lao People's Democratic Republic (the)"
  },
  "LB": {
    "CountryCode": "LB",
    "GeoCountryId": 127,
    "GeoCountryName": {
      "CHS": "黎巴嫩",
      "CHT": "黎巴嫩",
      "English": "Lebanon"
    },
    "GeoCountryNameInvariant": "Lebanon"
  },
  "LC": {
    "CountryCode": "LC",
    "GeoCountryId": 128,
    "GeoCountryName": {
      "CHS": "圣卢西亚",
      "CHT": "聖盧西亞",
      "English": "Saint Lucia"
    },
    "GeoCountryNameInvariant": "Saint Lucia"
  },
  "LI": {
    "CountryCode": "LI",
    "GeoCountryId": 129,
    "GeoCountryName": {
      "CHS": "列支敦士登",
      "CHT": "列支敦士登",
      "English": "Liechtenstein"
    },
    "GeoCountryNameInvariant": "Liechtenstein"
  },
  "LK": {
    "CountryCode": "LK",
    "GeoCountryId": 130,
    "GeoCountryName": {
      "CHS": "斯里兰卡",
      "CHT": "斯里蘭卡",
      "English": "Sri Lanka"
    },
    "GeoCountryNameInvariant": "Sri Lanka"
  },
  "LR": {
    "CountryCode": "LR",
    "GeoCountryId": 131,
    "GeoCountryName": {
      "CHS": "利比里亚",
      "CHT": "利比里亞",
      "English": "Liberia"
    },
    "GeoCountryNameInvariant": "Liberia"
  },
  "LS": {
    "CountryCode": "LS",
    "GeoCountryId": 132,
    "GeoCountryName": {
      "CHS": "莱索托",
      "CHT": "萊索托",
      "English": "Lesotho"
    },
    "GeoCountryNameInvariant": "Lesotho"
  },
  "LT": {
    "CountryCode": "LT",
    "GeoCountryId": 133,
    "GeoCountryName": {
      "CHS": "立陶宛",
      "CHT": "立陶宛",
      "English": "Lithuania"
    },
    "GeoCountryNameInvariant": "Lithuania"
  },
  "LU": {
    "CountryCode": "LU",
    "GeoCountryId": 134,
    "GeoCountryName": {
      "CHS": "卢森堡",
      "CHT": "盧森堡",
      "English": "Luxembourg"
    },
    "GeoCountryNameInvariant": "Luxembourg"
  },
  "LV": {
    "CountryCode": "LV",
    "GeoCountryId": 135,
    "GeoCountryName": {
      "CHS": "拉脱维亚",
      "CHT": "拉脫維亞",
      "English": "Latvia"
    },
    "GeoCountryNameInvariant": "Latvia"
  },
  "LY": {
    "CountryCode": "LY",
    "GeoCountryId": 136,
    "GeoCountryName": {
      "CHS": "利比亚",
      "CHT": "利比亞",
      "English": "Libya"
    },
    "GeoCountryNameInvariant": "Libya"
  },
  "MA": {
    "CountryCode": "MA",
    "GeoCountryId": 137,
    "GeoCountryName": {
      "CHS": "摩洛哥",
      "CHT": "摩洛哥",
      "English": "Morocco"
    },
    "GeoCountryNameInvariant": "Morocco"
  },
  "MC": {
    "CountryCode": "MC",
    "GeoCountryId": 138,
    "GeoCountryName": {
      "CHS": "摩纳哥",
      "CHT": "摩納哥",
      "English": "Monaco"
    },
    "GeoCountryNameInvariant": "Monaco"
  },
  "MD": {
    "CountryCode": "MD",
    "GeoCountryId": 139,
    "GeoCountryName": {
      "CHS": "摩尔多瓦",
      "CHT": "摩爾多瓦",
      "English": "Moldova (the Republic of)"
    },
    "GeoCountryNameInvariant": "Moldova (the Republic of)"
  },
  "ME": {
    "CountryCode": "ME",
    "GeoCountryId": 140,
    "GeoCountryName": {
      "CHS": "黑山共和国",
      "CHT": "黑山共和國",
      "English": "Montenegro"
    },
    "GeoCountryNameInvariant": "Montenegro"
  },
  "MF": {
    "CountryCode": "MF",
    "GeoCountryId": 141,
    "GeoCountryName": {
      "CHS": "圣马丁",
      "CHT": "聖馬丁",
      "English": "Saint Martin (French part)"
    },
    "GeoCountryNameInvariant": "Saint Martin (French part)"
  },
  "MG": {
    "CountryCode": "MG",
    "GeoCountryId": 142,
    "GeoCountryName": {
      "CHS": "马达加斯加",
      "CHT": "馬達加斯加",
      "English": "Madagascar"
    },
    "GeoCountryNameInvariant": "Madagascar"
  },
  "MH": {
    "CountryCode": "MH",
    "GeoCountryId": 143,
    "GeoCountryName": {
      "CHS": "马绍尔群岛",
      "CHT": "馬紹爾群島",
      "English": "Marshall Islands (the)"
    },
    "GeoCountryNameInvariant": "Marshall Islands (the)"
  },
  "MI": {
    "CountryCode": "MI",
    "GeoCountryId": 144,
    "GeoCountryName": {
      "CHS": "中途岛",
      "CHT": "中途島",
      "English": "Midway Islands"
    },
    "GeoCountryNameInvariant": "Midway Islands"
  },
  "MK": {
    "CountryCode": "MK",
    "GeoCountryId": 145,
    "GeoCountryName": {
      "CHS": "马其顿",
      "CHT": "馬其頓",
      "English": "Macedonia (the former Yugoslav Republic of)"
    },
    "GeoCountryNameInvariant": "Macedonia (the former Yugoslav Republic of)"
  },
  "ML": {
    "CountryCode": "ML",
    "GeoCountryId": 146,
    "GeoCountryName": {
      "CHS": "马里",
      "CHT": "馬里",
      "English": "Mali"
    },
    "GeoCountryNameInvariant": "Mali"
  },
  "MM": {
    "CountryCode": "MM",
    "GeoCountryId": 147,
    "GeoCountryName": {
      "CHS": "缅甸",
      "CHT": "緬甸",
      "English": "Myanmar"
    },
    "GeoCountryNameInvariant": "Myanmar"
  },
  "MN": {
    "CountryCode": "MN",
    "GeoCountryId": 148,
    "GeoCountryName": {
      "CHS": "蒙古",
      "CHT": "蒙古",
      "English": "Mongolia"
    },
    "GeoCountryNameInvariant": "Mongolia"
  },
  "MO": {
    "CountryCode": "MO",
    "GeoCountryId": 149,
    "GeoCountryName": {
      "CHS": "澳门",
      "CHT": "澳門",
      "English": "Macao"
    },
    "GeoCountryNameInvariant": "Macao"
  },
  "MP": {
    "CountryCode": "MP",
    "GeoCountryId": 150,
    "GeoCountryName": {
      "CHS": "北马里亚纳群岛",
      "CHT": "北馬里亞納群島",
      "English": "Northern Mariana Islands (the)"
    },
    "GeoCountryNameInvariant": "Northern Mariana Islands (the)"
  },
  "MQ": {
    "CountryCode": "MQ",
    "GeoCountryId": 151,
    "GeoCountryName": {
      "CHS": "马提尼克岛",
      "CHT": "馬提尼克島",
      "English": "Martinique"
    },
    "GeoCountryNameInvariant": "Martinique"
  },
  "MR": {
    "CountryCode": "MR",
    "GeoCountryId": 152,
    "GeoCountryName": {
      "CHS": "毛里塔尼亚",
      "CHT": "毛里塔尼亞",
      "English": "Mauritania"
    },
    "GeoCountryNameInvariant": "Mauritania"
  },
  "MS": {
    "CountryCode": "MS",
    "GeoCountryId": 153,
    "GeoCountryName": {
      "CHS": "蒙特色拉特岛",
      "CHT": "蒙特色拉特島",
      "English": "Montserrat"
    },
    "GeoCountryNameInvariant": "Montserrat"
  },
  "MT": {
    "CountryCode": "MT",
    "GeoCountryId": 154,
    "GeoCountryName": {
      "CHS": "马耳他",
      "CHT": "馬耳他",
      "English": "Malta"
    },
    "GeoCountryNameInvariant": "Malta"
  },
  "MU": {
    "CountryCode": "MU",
    "GeoCountryId": 155,
    "GeoCountryName": {
      "CHS": "毛里求斯",
      "CHT": "毛里求斯",
      "English": "Mauritius"
    },
    "GeoCountryNameInvariant": "Mauritius"
  },
  "MV": {
    "CountryCode": "MV",
    "GeoCountryId": 156,
    "GeoCountryName": {
      "CHS": "马尔代夫",
      "CHT": "馬爾代夫",
      "English": "Maldives"
    },
    "GeoCountryNameInvariant": "Maldives"
  },
  "MW": {
    "CountryCode": "MW",
    "GeoCountryId": 157,
    "GeoCountryName": {
      "CHS": "马拉维",
      "CHT": "馬拉維",
      "English": "Malawi"
    },
    "GeoCountryNameInvariant": "Malawi"
  },
  "MX": {
    "CountryCode": "MX",
    "GeoCountryId": 158,
    "GeoCountryName": {
      "CHS": "墨西哥",
      "CHT": "墨西哥",
      "English": "Mexico"
    },
    "GeoCountryNameInvariant": "Mexico"
  },
  "MY": {
    "CountryCode": "MY",
    "GeoCountryId": 159,
    "GeoCountryName": {
      "CHS": "马来西亚",
      "CHT": "馬來西亞",
      "English": "Malaysia"
    },
    "GeoCountryNameInvariant": "Malaysia"
  },
  "MZ": {
    "CountryCode": "MZ",
    "GeoCountryId": 160,
    "GeoCountryName": {
      "CHS": "莫桑比克",
      "CHT": "莫桑比克",
      "English": "Mozambique"
    },
    "GeoCountryNameInvariant": "Mozambique"
  },
  "NA": {
    "CountryCode": "NA",
    "GeoCountryId": 161,
    "GeoCountryName": {
      "CHS": "纳米比亚",
      "CHT": "納米比亞",
      "English": "Namibia"
    },
    "GeoCountryNameInvariant": "Namibia"
  },
  "NC": {
    "CountryCode": "NC",
    "GeoCountryId": 162,
    "GeoCountryName": {
      "CHS": "新喀里多尼亚",
      "CHT": "新喀裡多尼亞",
      "English": "New Caledonia"
    },
    "GeoCountryNameInvariant": "New Caledonia"
  },
  "NE": {
    "CountryCode": "NE",
    "GeoCountryId": 163,
    "GeoCountryName": {
      "CHS": "尼日尔",
      "CHT": "尼日爾",
      "English": "Niger (the)"
    },
    "GeoCountryNameInvariant": "Niger (the)"
  },
  "NF": {
    "CountryCode": "NF",
    "GeoCountryId": 164,
    "GeoCountryName": {
      "CHS": "诺福克岛",
      "CHT": "諾福克島",
      "English": "Norfolk Island"
    },
    "GeoCountryNameInvariant": "Norfolk Island"
  },
  "NG": {
    "CountryCode": "NG",
    "GeoCountryId": 165,
    "GeoCountryName": {
      "CHS": "尼日利亚",
      "CHT": "尼日利亞",
      "English": "Nigeria"
    },
    "GeoCountryNameInvariant": "Nigeria"
  },
  "NH": {
    "CountryCode": "NH",
    "GeoCountryId": 166,
    "GeoCountryName": {
      "CHS": "新赫布里底群岛",
      "CHT": "新赫布里底群島",
      "English": "New Hebrides"
    },
    "GeoCountryNameInvariant": "New Hebrides"
  },
  "NI": {
    "CountryCode": "NI",
    "GeoCountryId": 167,
    "GeoCountryName": {
      "CHS": "尼加拉瓜",
      "CHT": "尼加拉瓜",
      "English": "Nicaragua"
    },
    "GeoCountryNameInvariant": "Nicaragua"
  },
  "NL": {
    "CountryCode": "NL",
    "GeoCountryId": 168,
    "GeoCountryName": {
      "CHS": "荷兰",
      "CHT": "荷蘭",
      "English": "Netherlands (the)"
    },
    "GeoCountryNameInvariant": "Netherlands (the)"
  },
  "NO": {
    "CountryCode": "NO",
    "GeoCountryId": 169,
    "GeoCountryName": {
      "CHS": "挪威",
      "CHT": "挪威",
      "English": "Norway"
    },
    "GeoCountryNameInvariant": "Norway"
  },
  "NP": {
    "CountryCode": "NP",
    "GeoCountryId": 170,
    "GeoCountryName": {
      "CHS": "尼泊尔",
      "CHT": "尼泊爾",
      "English": "Nepal"
    },
    "GeoCountryNameInvariant": "Nepal"
  },
  "NR": {
    "CountryCode": "NR",
    "GeoCountryId": 171,
    "GeoCountryName": {
      "CHS": "瑙鲁",
      "CHT": "瑙魯",
      "English": "Nauru"
    },
    "GeoCountryNameInvariant": "Nauru"
  },
  "NU": {
    "CountryCode": "NU",
    "GeoCountryId": 172,
    "GeoCountryName": {
      "CHS": "纽埃岛",
      "CHT": "紐埃島",
      "English": "Niue"
    },
    "GeoCountryNameInvariant": "Niue"
  },
  "NZ": {
    "CountryCode": "NZ",
    "GeoCountryId": 173,
    "GeoCountryName": {
      "CHS": "新西兰",
      "CHT": "新西蘭",
      "English": "New Zealand"
    },
    "GeoCountryNameInvariant": "New Zealand"
  },
  "OM": {
    "CountryCode": "OM",
    "GeoCountryId": 174,
    "GeoCountryName": {
      "CHS": "阿曼",
      "CHT": "阿曼",
      "English": "Oman"
    },
    "GeoCountryNameInvariant": "Oman"
  },
  "PA": {
    "CountryCode": "PA",
    "GeoCountryId": 175,
    "GeoCountryName": {
      "CHS": "巴拿马",
      "CHT": "巴拿馬",
      "English": "Panama"
    },
    "GeoCountryNameInvariant": "Panama"
  },
  "PC": {
    "CountryCode": "PC",
    "GeoCountryId": 176,
    "GeoCountryName": {
      "CHS": "太平洋诸岛",
      "CHT": "太平洋諸島",
      "English": "Pacific Islands (Trust Territory)"
    },
    "GeoCountryNameInvariant": "Pacific Islands (Trust Territory)"
  },
  "PE": {
    "CountryCode": "PE",
    "GeoCountryId": 177,
    "GeoCountryName": {
      "CHS": "秘鲁",
      "CHT": "秘魯",
      "English": "Peru"
    },
    "GeoCountryNameInvariant": "Peru"
  },
  "PG": {
    "CountryCode": "PG",
    "GeoCountryId": 178,
    "GeoCountryName": {
      "CHS": "巴布亚新几内亚",
      "CHT": "巴布亞新幾內亞",
      "English": "Papua New Guinea"
    },
    "GeoCountryNameInvariant": "Papua New Guinea"
  },
  "PH": {
    "CountryCode": "PH",
    "GeoCountryId": 179,
    "GeoCountryName": {
      "CHS": "菲律宾",
      "CHT": "菲律賓",
      "English": "Philippines (the)"
    },
    "GeoCountryNameInvariant": "Philippines (the)"
  },
  "PK": {
    "CountryCode": "PK",
    "GeoCountryId": 180,
    "GeoCountryName": {
      "CHS": "巴基斯坦",
      "CHT": "巴基斯坦",
      "English": "Pakistan"
    },
    "GeoCountryNameInvariant": "Pakistan"
  },
  "PL": {
    "CountryCode": "PL",
    "GeoCountryId": 181,
    "GeoCountryName": {
      "CHS": "波兰",
      "CHT": "波蘭",
      "English": "Poland"
    },
    "GeoCountryNameInvariant": "Poland"
  },
  "PM": {
    "CountryCode": "PM",
    "GeoCountryId": 182,
    "GeoCountryName": {
      "CHS": "圣皮埃尔和密克隆群岛",
      "CHT": "聖皮埃爾和密克隆群島",
      "English": "Saint Pierre and Miquelon"
    },
    "GeoCountryNameInvariant": "Saint Pierre and Miquelon"
  },
  "PN": {
    "CountryCode": "PN",
    "GeoCountryId": 183,
    "GeoCountryName": {
      "CHS": "皮特克恩岛",
      "CHT": "皮特克恩島",
      "English": "Pitcairn"
    },
    "GeoCountryNameInvariant": "Pitcairn"
  },
  "PR": {
    "CountryCode": "PR",
    "GeoCountryId": 184,
    "GeoCountryName": {
      "CHS": "波多黎各",
      "CHT": "波多黎各",
      "English": "Puerto Rico"
    },
    "GeoCountryNameInvariant": "Puerto Rico"
  },
  "PS": {
    "CountryCode": "PS",
    "GeoCountryId": 185,
    "GeoCountryName": {
      "CHS": "巴勒斯坦领土",
      "CHT": "巴勒斯坦領土",
      "English": "Palestine, State of"
    },
    "GeoCountryNameInvariant": "Palestine, State of"
  },
  "PT": {
    "CountryCode": "PT",
    "GeoCountryId": 186,
    "GeoCountryName": {
      "CHS": "葡萄牙",
      "CHT": "葡萄牙",
      "English": "Portugal"
    },
    "GeoCountryNameInvariant": "Portugal"
  },
  "PW": {
    "CountryCode": "PW",
    "GeoCountryId": 187,
    "GeoCountryName": {
      "CHS": "帕劳",
      "CHT": "帕勞",
      "English": "Palau"
    },
    "GeoCountryNameInvariant": "Palau"
  },
  "PY": {
    "CountryCode": "PY",
    "GeoCountryId": 188,
    "GeoCountryName": {
      "CHS": "巴拉圭",
      "CHT": "巴拉圭",
      "English": "Paraguay"
    },
    "GeoCountryNameInvariant": "Paraguay"
  },
  "QA": {
    "CountryCode": "QA",
    "GeoCountryId": 189,
    "GeoCountryName": {
      "CHS": "卡塔尔",
      "CHT": "卡塔爾",
      "English": "Qatar"
    },
    "GeoCountryNameInvariant": "Qatar"
  },
  "RE": {
    "CountryCode": "RE",
    "GeoCountryId": 190,
    "GeoCountryName": {
      "CHS": "留尼旺岛",
      "CHT": "留尼旺島",
      "English": "Réunion"
    },
    "GeoCountryNameInvariant": "Réunion"
  },
  "RO": {
    "CountryCode": "RO",
    "GeoCountryId": 191,
    "GeoCountryName": {
      "CHS": "罗马尼亚",
      "CHT": "羅馬尼亞",
      "English": "Romania"
    },
    "GeoCountryNameInvariant": "Romania"
  },
  "RS": {
    "CountryCode": "RS",
    "GeoCountryId": 192,
    "GeoCountryName": {
      "CHS": "塞尔维亚",
      "CHT": "塞爾維亞",
      "English": "Serbia"
    },
    "GeoCountryNameInvariant": "Serbia"
  },
  "RU": {
    "CountryCode": "RU",
    "GeoCountryId": 193,
    "GeoCountryName": {
      "CHS": "俄罗斯",
      "CHT": "俄羅斯",
      "English": "Russian Federation (the)"
    },
    "GeoCountryNameInvariant": "Russian Federation (the)"
  },
  "RW": {
    "CountryCode": "RW",
    "GeoCountryId": 194,
    "GeoCountryName": {
      "CHS": "卢旺达",
      "CHT": "盧旺達",
      "English": "Rwanda"
    },
    "GeoCountryNameInvariant": "Rwanda"
  },
  "SA": {
    "CountryCode": "SA",
    "GeoCountryId": 195,
    "GeoCountryName": {
      "CHS": "沙特阿拉伯",
      "CHT": "沙特阿拉伯",
      "English": "Saudi Arabia"
    },
    "GeoCountryNameInvariant": "Saudi Arabia"
  },
  "SB": {
    "CountryCode": "SB",
    "GeoCountryId": 196,
    "GeoCountryName": {
      "CHS": "所罗门群岛",
      "CHT": "所羅門群島",
      "English": "Solomon Islands"
    },
    "GeoCountryNameInvariant": "Solomon Islands"
  },
  "SC": {
    "CountryCode": "SC",
    "GeoCountryId": 197,
    "GeoCountryName": {
      "CHS": "塞舌尔",
      "CHT": "塞舌爾",
      "English": "Seychelles"
    },
    "GeoCountryNameInvariant": "Seychelles"
  },
  "SD": {
    "CountryCode": "SD",
    "GeoCountryId": 198,
    "GeoCountryName": {
      "CHS": "苏丹",
      "CHT": "蘇丹",
      "English": "Sudan"
    },
    "GeoCountryNameInvariant": "Sudan"
  },
  "SE": {
    "CountryCode": "SE",
    "GeoCountryId": 199,
    "GeoCountryName": {
      "CHS": "瑞典",
      "CHT": "瑞典",
      "English": "Sweden"
    },
    "GeoCountryNameInvariant": "Sweden"
  },
  "SG": {
    "CountryCode": "SG",
    "GeoCountryId": 200,
    "GeoCountryName": {
      "CHS": "新加坡",
      "CHT": "新加坡",
      "English": "Singapore"
    },
    "GeoCountryNameInvariant": "Singapore"
  },
  "SI": {
    "CountryCode": "SI",
    "GeoCountryId": 201,
    "GeoCountryName": {
      "CHS": "斯洛文尼亚",
      "CHT": "斯洛文尼亞",
      "English": "Slovenia"
    },
    "GeoCountryNameInvariant": "Slovenia"
  },
  "SJ": {
    "CountryCode": "SJ",
    "GeoCountryId": 202,
    "GeoCountryName": {
      "CHS": "斯瓦尔巴和扬马延",
      "CHT": "斯瓦爾巴和揚馬延",
      "English": "Svalbard and Jan Mayen"
    },
    "GeoCountryNameInvariant": "Svalbard and Jan Mayen"
  },
  "SK": {
    "CountryCode": "SK",
    "GeoCountryId": 203,
    "GeoCountryName": {
      "CHS": "锡金",
      "CHT": "錫金",
      "English": "Sikkim"
    },
    "GeoCountryNameInvariant": "Sikkim"
  },
  "SK": {
    "CountryCode": "SK",
    "GeoCountryId": 204,
    "GeoCountryName": {
      "CHS": "斯洛伐克",
      "CHT": "斯洛伐克",
      "English": "Slovakia"
    },
    "GeoCountryNameInvariant": "Slovakia"
  },
  "SL": {
    "CountryCode": "SL",
    "GeoCountryId": 205,
    "GeoCountryName": {
      "CHS": "塞拉利昂",
      "CHT": "塞拉利昂",
      "English": "Sierra Leone"
    },
    "GeoCountryNameInvariant": "Sierra Leone"
  },
  "SM": {
    "CountryCode": "SM",
    "GeoCountryId": 206,
    "GeoCountryName": {
      "CHS": "圣马力诺",
      "CHT": "聖馬力諾",
      "English": "San Marino"
    },
    "GeoCountryNameInvariant": "San Marino"
  },
  "SN": {
    "CountryCode": "SN",
    "GeoCountryId": 207,
    "GeoCountryName": {
      "CHS": "塞内加尔",
      "CHT": "塞內加爾",
      "English": "Senegal"
    },
    "GeoCountryNameInvariant": "Senegal"
  },
  "SO": {
    "CountryCode": "SO",
    "GeoCountryId": 208,
    "GeoCountryName": {
      "CHS": "索马里",
      "CHT": "索馬里",
      "English": "Somalia"
    },
    "GeoCountryNameInvariant": "Somalia"
  },
  "SR": {
    "CountryCode": "SR",
    "GeoCountryId": 209,
    "GeoCountryName": {
      "CHS": "苏里南",
      "CHT": "蘇里南",
      "English": "Suriname"
    },
    "GeoCountryNameInvariant": "Suriname"
  },
  "SS": {
    "CountryCode": "SS",
    "GeoCountryId": 210,
    "GeoCountryName": {
      "CHS": "南苏丹",
      "CHT": "南蘇丹",
      "English": "South Sudan"
    },
    "GeoCountryNameInvariant": "South Sudan"
  },
  "ST": {
    "CountryCode": "ST",
    "GeoCountryId": 211,
    "GeoCountryName": {
      "CHS": "圣多美和普林西比",
      "CHT": "聖多美和普林西比",
      "English": "Sao Tome and Principe"
    },
    "GeoCountryNameInvariant": "Sao Tome and Principe"
  },
  "SV": {
    "CountryCode": "SV",
    "GeoCountryId": 212,
    "GeoCountryName": {
      "CHS": "萨尔瓦多",
      "CHT": "薩爾瓦多",
      "English": "El Salvador"
    },
    "GeoCountryNameInvariant": "El Salvador"
  },
  "SX": {
    "CountryCode": "SX",
    "GeoCountryId": 213,
    "GeoCountryName": {
      "CHS": "圣马丁岛",
      "CHT": "聖馬丁島",
      "English": "Sint Maarten (Dutch part)"
    },
    "GeoCountryNameInvariant": "Sint Maarten (Dutch part)"
  },
  "SY": {
    "CountryCode": "SY",
    "GeoCountryId": 214,
    "GeoCountryName": {
      "CHS": "叙利亚",
      "CHT": "敘利亞",
      "English": "Syrian Arab Republic"
    },
    "GeoCountryNameInvariant": "Syrian Arab Republic"
  },
  "SZ": {
    "CountryCode": "SZ",
    "GeoCountryId": 215,
    "GeoCountryName": {
      "CHS": "斯威士兰",
      "CHT": "斯威士蘭",
      "English": "Swaziland"
    },
    "GeoCountryNameInvariant": "Swaziland"
  },
  "TC": {
    "CountryCode": "TC",
    "GeoCountryId": 216,
    "GeoCountryName": {
      "CHS": "特克斯和凯科斯群岛",
      "CHT": "特克斯和凱科斯群島",
      "English": "Turks and Caicos Islands"
    },
    "GeoCountryNameInvariant": "Turks and Caicos Islands"
  },
  "TD": {
    "CountryCode": "TD",
    "GeoCountryId": 217,
    "GeoCountryName": {
      "CHS": "乍得",
      "CHT": "乍得",
      "English": "Chad"
    },
    "GeoCountryNameInvariant": "Chad"
  },
  "TG": {
    "CountryCode": "TG",
    "GeoCountryId": 218,
    "GeoCountryName": {
      "CHS": "多哥",
      "CHT": "多哥",
      "English": "Togo"
    },
    "GeoCountryNameInvariant": "Togo"
  },
  "TH": {
    "CountryCode": "TH",
    "GeoCountryId": 219,
    "GeoCountryName": {
      "CHS": "泰国",
      "CHT": "泰國",
      "English": "Thailand"
    },
    "GeoCountryNameInvariant": "Thailand"
  },
  "TJ": {
    "CountryCode": "TJ",
    "GeoCountryId": 220,
    "GeoCountryName": {
      "CHS": "塔吉克斯坦",
      "CHT": "塔吉克斯坦",
      "English": "Tajikistan"
    },
    "GeoCountryNameInvariant": "Tajikistan"
  },
  "TK": {
    "CountryCode": "TK",
    "GeoCountryId": 221,
    "GeoCountryName": {
      "CHS": "托克劳群岛",
      "CHT": "托克勞群島",
      "English": "Tokelau"
    },
    "GeoCountryNameInvariant": "Tokelau"
  },
  "TM": {
    "CountryCode": "TM",
    "GeoCountryId": 223,
    "GeoCountryName": {
      "CHS": "土库曼斯坦",
      "CHT": "土庫曼斯坦",
      "English": "Turkmenistan"
    },
    "GeoCountryNameInvariant": "Turkmenistan"
  },
  "TN": {
    "CountryCode": "TN",
    "GeoCountryId": 224,
    "GeoCountryName": {
      "CHS": "突尼斯",
      "CHT": "突尼斯",
      "English": "Tunisia"
    },
    "GeoCountryNameInvariant": "Tunisia"
  },
  "TO": {
    "CountryCode": "TO",
    "GeoCountryId": 225,
    "GeoCountryName": {
      "CHS": "汤加",
      "CHT": "湯加",
      "English": "Tonga"
    },
    "GeoCountryNameInvariant": "Tonga"
  },
  "TP": {
    "CountryCode": "TP",
    "GeoCountryId": 226,
    "GeoCountryName": {
      "CHS": "东帝汶",
      "CHT": "東帝汶",
      "English": "East Timor"
    },
    "GeoCountryNameInvariant": "East Timor"
  },
  "TR": {
    "CountryCode": "TR",
    "GeoCountryId": 227,
    "GeoCountryName": {
      "CHS": "土耳其",
      "CHT": "土耳其",
      "English": "Turkey"
    },
    "GeoCountryNameInvariant": "Turkey"
  },
  "TT": {
    "CountryCode": "TT",
    "GeoCountryId": 228,
    "GeoCountryName": {
      "CHS": "特立尼达和多巴哥",
      "CHT": "特立尼達和多巴哥",
      "English": "Trinidad and Tobago"
    },
    "GeoCountryNameInvariant": "Trinidad and Tobago"
  },
  "TV": {
    "CountryCode": "TV",
    "GeoCountryId": 229,
    "GeoCountryName": {
      "CHS": "图瓦卢",
      "CHT": "圖瓦盧",
      "English": "Tuvalu"
    },
    "GeoCountryNameInvariant": "Tuvalu"
  },
  "TW": {
    "CountryCode": "TW",
    "GeoCountryId": 230,
    "GeoCountryName": {
      "CHS": "台湾",
      "CHT": "台灣",
      "English": "Taiwan, Province of China"
    },
    "GeoCountryNameInvariant": "Taiwan, Province of China"
  },
  "TZ": {
    "CountryCode": "TZ",
    "GeoCountryId": 231,
    "GeoCountryName": {
      "CHS": "坦桑尼亚",
      "CHT": "坦桑尼亞",
      "English": "Tanzania, United Republic of"
    },
    "GeoCountryNameInvariant": "Tanzania, United Republic of"
  },
  "UA": {
    "CountryCode": "UA",
    "GeoCountryId": 232,
    "GeoCountryName": {
      "CHS": "乌克兰",
      "CHT": "烏克蘭",
      "English": "Ukraine"
    },
    "GeoCountryNameInvariant": "Ukraine"
  },
  "UG": {
    "CountryCode": "UG",
    "GeoCountryId": 233,
    "GeoCountryName": {
      "CHS": "乌干达",
      "CHT": "烏干達",
      "English": "Uganda"
    },
    "GeoCountryNameInvariant": "Uganda"
  },
  "US": {
    "CountryCode": "US",
    "GeoCountryId": 234,
    "GeoCountryName": {
      "CHS": "美国",
      "CHT": "美國",
      "English": "United States of America"
    },
    "GeoCountryNameInvariant": "United States of America"
  },
  "UY": {
    "CountryCode": "UY",
    "GeoCountryId": 235,
    "GeoCountryName": {
      "CHS": "乌拉圭",
      "CHT": "烏拉圭",
      "English": "Uruguay"
    },
    "GeoCountryNameInvariant": "Uruguay"
  },
  "UZ": {
    "CountryCode": "UZ",
    "GeoCountryId": 236,
    "GeoCountryName": {
      "CHS": "乌兹别克斯坦",
      "CHT": "烏茲別克斯坦",
      "English": "Uzbekistan"
    },
    "GeoCountryNameInvariant": "Uzbekistan"
  },
  "VA": {
    "CountryCode": "VA",
    "GeoCountryId": 237,
    "GeoCountryName": {
      "CHS": "梵蒂冈",
      "CHT": "梵蒂岡",
      "English": "Holy See"
    },
    "GeoCountryNameInvariant": "Holy See"
  },
  "VC": {
    "CountryCode": "VC",
    "GeoCountryId": 238,
    "GeoCountryName": {
      "CHS": "圣文森特和格林纳丁斯",
      "CHT": "聖文森特和格林納丁斯",
      "English": "Saint Vincent and the Grenadines"
    },
    "GeoCountryNameInvariant": "Saint Vincent and the Grenadines"
  },
  "VE": {
    "CountryCode": "VE",
    "GeoCountryId": 239,
    "GeoCountryName": {
      "CHS": "委内瑞拉",
      "CHT": "委內瑞拉",
      "English": "Venezuela (Bolivarian Republic of)"
    },
    "GeoCountryNameInvariant": "Venezuela (Bolivarian Republic of)"
  },
  "VG": {
    "CountryCode": "VG",
    "GeoCountryId": 240,
    "GeoCountryName": {
      "CHS": "英属维尔京群岛",
      "CHT": "英屬維爾京群島",
      "English": "Virgin Islands (British)"
    },
    "GeoCountryNameInvariant": "Virgin Islands (British)"
  },
  "VI": {
    "CountryCode": "VI",
    "GeoCountryId": 241,
    "GeoCountryName": {
      "CHS": "美属维尔京群岛",
      "CHT": "美屬維爾京群島",
      "English": "Virgin Islands (U.S.)"
    },
    "GeoCountryNameInvariant": "Virgin Islands (U.S.)"
  },
  "VN": {
    "CountryCode": "VN",
    "GeoCountryId": 242,
    "GeoCountryName": {
      "CHS": "越南",
      "CHT": "越南",
      "English": "Vietnam"
    },
    "GeoCountryNameInvariant": "Vietnam"
  },
  "VU": {
    "CountryCode": "VU",
    "GeoCountryId": 243,
    "GeoCountryName": {
      "CHS": "瓦努阿图",
      "CHT": "瓦努阿圖",
      "English": "Vanuatu"
    },
    "GeoCountryNameInvariant": "Vanuatu"
  },
  "WS": {
    "CountryCode": "WS",
    "GeoCountryId": 244,
    "GeoCountryName": {
      "CHS": "萨摩亚",
      "CHT": "薩摩亞",
      "English": "Samoa"
    },
    "GeoCountryNameInvariant": "Samoa"
  },
  "YE": {
    "CountryCode": "YE",
    "GeoCountryId": 245,
    "GeoCountryName": {
      "CHS": "也门",
      "CHT": "也門",
      "English": "Yemen"
    },
    "GeoCountryNameInvariant": "Yemen"
  },
  "YT": {
    "CountryCode": "YT",
    "GeoCountryId": 246,
    "GeoCountryName": {
      "CHS": "马约特岛",
      "CHT": "馬約特島",
      "English": "Mayotte"
    },
    "GeoCountryNameInvariant": "Mayotte"
  },
  "YU": {
    "CountryCode": "YU",
    "GeoCountryId": 247,
    "GeoCountryName": {
      "CHS": "南斯拉夫",
      "CHT": "南斯拉夫",
      "English": "Yugoslavia"
    },
    "GeoCountryNameInvariant": "Yugoslavia"
  },
  "ZA": {
    "CountryCode": "ZA",
    "GeoCountryId": 248,
    "GeoCountryName": {
      "CHS": "南非",
      "CHT": "南非",
      "English": "South Africa"
    },
    "GeoCountryNameInvariant": "South Africa"
  },
  "ZM": {
    "CountryCode": "ZM",
    "GeoCountryId": 249,
    "GeoCountryName": {
      "CHS": "赞比亚",
      "CHT": "贊比亞",
      "English": "Zambia"
    },
    "GeoCountryNameInvariant": "Zambia"
  },
  "ZR": {
    "CountryCode": "ZR",
    "GeoCountryId": 250,
    "GeoCountryName": {
      "CHS": "扎伊尔",
      "CHT": "扎伊爾",
      "English": "Zaire"
    },
    "GeoCountryNameInvariant": "Zaire"
  },
  "ZW": {
    "CountryCode": "ZW",
    "GeoCountryId": 251,
    "GeoCountryName": {
      "CHS": "津巴布韦",
      "CHT": "津巴布韋",
      "English": "Zimbabwe"
    },
    "GeoCountryNameInvariant": "Zimbabwe"
  }
}